Quantified Self Movement Monitor Data Analysis
…
## The following objects are masked from 'package:base':
## 
##     intersect, setdiff, setequal, union

data_grpd = data_clean %>% 
  group_by(date) %>%
  summarise(steps_per_day = sum(steps))

## `summarise()` ungrouping output (override with `.groups` argument)

data_grpd

## # A tibble: 53 x 2
##    date       steps_per_day
##    <date>             <int>
##  1 2012-10-02           126
##  2 2012-10-03         11352
##  3 2012-10-04         12116
##  4 2012-10-05         13294
##  5 2012-10-06         15420
##  6 2012-10-07         11015
##  7 2012-10-09         12811
##  8 2012-10-10          9900
##  9 2012-10-11         10304
## 10 2012-10-12         17382
## # ... with 43 more rows
…
data_consdt = data_clean %>% 
  group_by(interval) %>%
  summarise(steps_by_interval = mean(steps))

## `summarise()` ungrouping output (override with `.groups` argument)

data_consdt

## # A tibble: 288 x 2
##    interval steps_by_interval
##       <int>             <dbl>
##  1        0            1.72  
##  2        5            0.340 
##  3       10            0.132 
##  4       15            0.151 
##  5       20            0.0755
##  6       25            2.09  
##  7       30            0.528 
##  8       35            0.868 
##  9       40            0     
## 10       45            1.47  
## # ... with 278 more rows
…
## [1] 0

Histogram of the total number of steps taken each day after missing values are imputed

Summarising the data

data_grpd_imp = data_imputed %>% 
  group_by(date) %>%
  summarise(steps_per_day = sum(steps))

## `summarise()` ungrouping output (override with `.groups` argument)

data_grpd_imp

## # A tibble: 61 x 2
##    date       steps_per_day
##    <chr>              <dbl>
##  1 2012-10-01         10762
##  2 2012-10-02           126
##  3 2012-10-03         11352
##  4 2012-10-04         12116
##  5 2012-10-05         13294
##  6 2012-10-06         15420
##  7 2012-10-07         11015
##  8 2012-10-08         10762
##  9 2012-10-09         12811
## 10 2012-10-10          9900
## # ... with 51 more rows
…
data_imputed$weekend = factor(ifelse(wday(data_imputed$date) %in% c(2:6),0,1))

Considating the data by grouping by weekend first then interval

data_consdt_imp = data_imputed %>% 
  group_by(weekend,interval) %>%
  summarise(steps_by_interval = mean(steps))

## `summarise()` regrouping output by 'weekend' (override with `.groups` argument)

data_consdt_imp

## # A tibble: 576 x 3
## # Groups:   weekend [2]
##    weekend interval steps_by_interval
##    <fct>      <int>             <dbl>
##  1 0              0            2.29  
##  2 0              5            0.4   
##  3 0             10            0.156 
##  4 0             15            0.178 
##  5 0             20            0.0889
##  6 0             25            1.58  
##  7 0             30            0.756 
##  8 0             35            1.16  
##  9 0             40            0     
## 10 0             45            1.73  
## # ... with 566 more rows
…
